girlanda/simulation/qsim/girlanda.msim.vcd
$comment
	File created using the following command:
		vcd file girlanda.msim.vcd -direction
$end
$date
	Mon Dec 18 11:59:50 2017
$end
$version
	ModelSim Version 10.1d
$end
$timescale
	1ps
$end
$scope module girlanda_vlg_vec_tst $end
$var reg 1 ! button $end
$var reg 1 " clk $end
$var wire 1 # green [3] $end
$var wire 1 $ green [2] $end
$var wire 1 % green [1] $end
$var wire 1 & green [0] $end
$var wire 1 ' red [3] $end
$var wire 1 ( red [2] $end
$var wire 1 ) red [1] $end
$var wire 1 * red [0] $end
$var wire 1 + sampler $end
$scope module i1 $end
$var wire 1 , gnd $end
$var wire 1 - vcc $end
$var wire 1 . unknown $end
$var tri1 1 / devclrn $end
$var tri1 1 0 devpor $end
$var tri1 1 1 devoe $end
$var wire 1 2 count_in[8]~48_combout $end
$var wire 1 3 count_in[10]~52_combout $end
$var wire 1 4 count_in[21]~74_combout $end
$var wire 1 5 count_in[22]~76_combout $end
$var wire 1 6 count_in[26]~84_combout $end
$var wire 1 7 count_in[30]~93 $end
$var wire 1 8 count_in[31]~94_combout $end
$var wire 1 9 Equal0~2_combout $end
$var wire 1 : Equal0~6_combout $end
$var wire 1 ; clk~combout $end
$var wire 1 < clk~clkctrl_outclk $end
$var wire 1 = count_in[0]~32_combout $end
$var wire 1 > count_in[2]~37 $end
$var wire 1 ? count_in[3]~39 $end
$var wire 1 @ count_in[4]~40_combout $end
$var wire 1 A count_in[4]~41 $end
$var wire 1 B count_in[5]~43 $end
$var wire 1 C count_in[6]~45 $end
$var wire 1 D count_in[7]~46_combout $end
$var wire 1 E count_in[7]~47 $end
$var wire 1 F count_in[8]~49 $end
$var wire 1 G count_in[9]~50_combout $end
$var wire 1 H count_in[9]~51 $end
$var wire 1 I count_in[10]~53 $end
$var wire 1 J count_in[11]~54_combout $end
$var wire 1 K count_in[11]~55 $end
$var wire 1 L count_in[12]~57 $end
$var wire 1 M count_in[13]~58_combout $end
$var wire 1 N count_in[13]~59 $end
$var wire 1 O count_in[14]~60_combout $end
$var wire 1 P count_in[14]~61 $end
$var wire 1 Q count_in[15]~62_combout $end
$var wire 1 R count_in[15]~63 $end
$var wire 1 S count_in[16]~64_combout $end
$var wire 1 T count_in[16]~65 $end
$var wire 1 U count_in[17]~66_combout $end
$var wire 1 V count_in[17]~67 $end
$var wire 1 W count_in[18]~68_combout $end
$var wire 1 X count_in[18]~69 $end
$var wire 1 Y count_in[19]~70_combout $end
$var wire 1 Z Equal0~5_combout $end
$var wire 1 [ count_in[19]~71 $end
$var wire 1 \ count_in[20]~72_combout $end
$var wire 1 ] count_in[20]~73 $end
$var wire 1 ^ count_in[21]~75 $end
$var wire 1 _ count_in[22]~77 $end
$var wire 1 ` count_in[23]~78_combout $end
$var wire 1 a count_in[23]~79 $end
$var wire 1 b count_in[24]~81 $end
$var wire 1 c count_in[25]~82_combout $end
$var wire 1 d count_in[25]~83 $end
$var wire 1 e count_in[26]~85 $end
$var wire 1 f count_in[27]~86_combout $end
$var wire 1 g count_in[27]~87 $end
$var wire 1 h count_in[28]~89 $end
$var wire 1 i count_in[29]~90_combout $end
$var wire 1 j count_in[29]~91 $end
$var wire 1 k count_in[30]~92_combout $end
$var wire 1 l count_in[28]~88_combout $end
$var wire 1 m Equal0~8_combout $end
$var wire 1 n count_in[24]~80_combout $end
$var wire 1 o Equal0~7_combout $end
$var wire 1 p Equal0~9_combout $end
$var wire 1 q button~combout $end
$var wire 1 r counter[0]~0_combout $end
$var wire 1 s counter[1]~1_combout $end
$var wire 1 t count_out~0_combout $end
$var wire 1 u count_in[0]~33 $end
$var wire 1 v count_in[1]~34_combout $end
$var wire 1 w count_in[1]~35 $end
$var wire 1 x count_in[2]~36_combout $end
$var wire 1 y count_in[3]~38_combout $end
$var wire 1 z Equal0~0_combout $end
$var wire 1 { count_in[12]~56_combout $end
$var wire 1 | Equal0~3_combout $end
$var wire 1 } count_in[6]~44_combout $end
$var wire 1 ~ count_in[5]~42_combout $end
$var wire 1 !! Equal0~1_combout $end
$var wire 1 "! Equal0~4_combout $end
$var wire 1 #! red~0_combout $end
$var wire 1 $! count_in [31] $end
$var wire 1 %! count_in [30] $end
$var wire 1 &! count_in [29] $end
$var wire 1 '! count_in [28] $end
$var wire 1 (! count_in [27] $end
$var wire 1 )! count_in [26] $end
$var wire 1 *! count_in [25] $end
$var wire 1 +! count_in [24] $end
$var wire 1 ,! count_in [23] $end
$var wire 1 -! count_in [22] $end
$var wire 1 .! count_in [21] $end
$var wire 1 /! count_in [20] $end
$var wire 1 0! count_in [19] $end
$var wire 1 1! count_in [18] $end
$var wire 1 2! count_in [17] $end
$var wire 1 3! count_in [16] $end
$var wire 1 4! count_in [15] $end
$var wire 1 5! count_in [14] $end
$var wire 1 6! count_in [13] $end
$var wire 1 7! count_in [12] $end
$var wire 1 8! count_in [11] $end
$var wire 1 9! count_in [10] $end
$var wire 1 :! count_in [9] $end
$var wire 1 ;! count_in [8] $end
$var wire 1 <! count_in [7] $end
$var wire 1 =! count_in [6] $end
$var wire 1 >! count_in [5] $end
$var wire 1 ?! count_in [4] $end
$var wire 1 @! count_in [3] $end
$var wire 1 A! count_in [2] $end
$var wire 1 B! count_in [1] $end
$var wire 1 C! count_in [0] $end
$var wire 1 D! counter [1] $end
$var wire 1 E! counter [0] $end
$upscope $end
$upscope $end
$enddefinitions $end
#0
$dumpvars
0!
0"
0&
0%
0$
0#
0*
0)
0(
0'
x+
0,
1-
x.
1/
10
11
02
03
04
05
06
07
08
19
1:
0;
0<
1=
0>
1?
0@
0A
1B
0C
0D
1E
0F
0G
1H
0I
0J
1K
0L
0M
1N
0O
0P
0Q
1R
0S
0T
0U
1V
0W
0X
0Y
1Z
1[
0\
0]
1^
0_
0`
1a
0b
0c
1d
0e
0f
1g
0h
0i
1j
0k
0l
0m
0n
1o
1p
0q
1r
0s
1t
0u
0v
1w
0x
0y
0z
0{
1|
0}
0~
1!!
1"!
1#!
0C!
0B!
0A!
0@!
0?!
0>!
0=!
0<!
0;!
0:!
09!
08!
07!
06!
05!
04!
03!
02!
01!
00!
0/!
0.!
0-!
0,!
0+!
0*!
0)!
0(!
0'!
0&!
0%!
0$!
0E!
0D!
$end
#10000
1"
1;
1<
0+
1E!
0t
1s
0r
#20000
0"
0;
0<
1+
#30000
1"
1;
1<
0+
1C!
1D!
0E!
1z
1u
0=
1r
1v
#40000
0"
0;
0<
1+
#50000
1"
1;
1<
0+
1B!
0C!
1E!
0w
0v
0u
1=
0s
0r
1x
1w
1v
0x
#60000
0"
0;
0<
1+
#70000
1"
1;
1<
0+
1C!
0D!
0E!
1u
0=
1t
1r
0w
0v
1x
#80000
0"
0;
0<
1+
#90000
1"
1;
1<
0+
0B!
0C!
1E!
0z
1w
1v
0u
1=
0t
1s
0r
0x
0v
#100000
0"
0;
0<
1+
#110000
1"
1;
1<
0+
1C!
1D!
0E!
1z
1u
0=
1r
1v
#120000
0"
0;
0<
1+
#130000
1"
1;
1<
0+
1B!
0C!
1E!
0w
0v
0u
1=
0s
0r
1x
1w
1v
0x
#140000
0"
0;
0<
1+
#150000
1"
1;
1<
0+
1C!
0D!
0E!
1u
0=
1t
1r
0w
0v
1x
#160000
0"
0;
0<
1+
#170000
1"
1;
1<
0+
0B!
0C!
1E!
0z
1w
1v
0u
1=
0t
1s
0r
0x
0v
#180000
0"
0;
0<
1+
#190000
1"
1;
1<
0+
1C!
1D!
0E!
1z
1u
0=
1r
1v
#200000
0"
0;
0<
1+
#210000
1"
1;
1<
0+
1B!
0C!
1E!
0w
0v
0u
1=
0s
0r
1x
1w
1v
0x
#220000
0"
0;
0<
1+
#230000
1"
1;
1<
0+
1C!
0D!
0E!
1u
0=
1t
1r
0w
0v
1x
#240000
0"
0;
0<
1+
#250000
1"
1;
1<
0+
0B!
0C!
1E!
0z
1w
1v
0u
1=
0t
1s
0r
0x
0v
#260000
0"
0;
0<
1+
#270000
1"
1;
1<
0+
1C!
1D!
0E!
1z
1u
0=
1r
1v
#280000
0"
0;
0<
1+
#290000
1"
1;
1<
0+
1B!
0C!
1E!
0w
0v
0u
1=
0s
0r
1x
1w
1v
0x
#300000
0"
0;
0<
1+
#310000
1"
1;
1<
0+
1C!
0D!
0E!
1u
0=
1t
1r
0w
0v
1x
#320000
0"
0;
0<
1+
#330000
1"
1;
1<
0+
0B!
0C!
1E!
0z
1w
1v
0u
1=
0t
1s
0r
0x
0v
#340000
0"
0;
0<
1+
#350000
1"
1;
1<
0+
1C!
1D!
0E!
1z
1u
0=
1r
1v
#360000
0"
0;
0<
1+
#370000
1"
1;
1<
0+
1B!
0C!
1E!
0w
0v
0u
1=
0s
0r
1x
1w
1v
0x
#380000
0"
0;
0<
1+
#390000
1"
1;
1<
0+
1C!
0D!
0E!
1u
0=
1t
1r
0w
0v
1x
#400000
0"
0;
0<
1+
#410000
1"
1;
1<
0+
0B!
0C!
1E!
0z
1w
1v
0u
1=
0t
1s
0r
0x
0v
#420000
0"
0;
0<
1+
#430000
1"
1;
1<
0+
1C!
1D!
0E!
1z
1u
0=
1r
1v
#440000
0"
0;
0<
1+
#450000
1"
1;
1<
0+
1B!
0C!
1E!
0w
0v
0u
1=
0s
0r
1x
1w
1v
0x
#460000
0"
0;
0<
1+
#470000
1"
1;
1<
0+
1C!
0D!
0E!
1u
0=
1t
1r
0w
0v
1x
#480000
0"
0;
0<
1+
#490000
1"
1;
1<
0+
0B!
0C!
1E!
0z
1w
1v
0u
1=
0t
1s
0r
0x
0v
#500000
0"
0;
0<
1+
#510000
1"
1;
1<
0+
1C!
1D!
0E!
1z
1u
0=
1r
1v
#520000
0"
0;
0<
1+
#530000
1"
1;
1<
0+
1B!
0C!
1E!
0w
0v
0u
1=
0s
0r
1x
1w
1v
0x
#540000
0"
0;
0<
1+
#550000
1"
1;
1<
0+
1C!
0D!
0E!
1u
0=
1t
1r
0w
0v
1x
#560000
0"
0;
0<
1+
#570000
1"
1;
1<
0+
0B!
0C!
1E!
0z
1w
1v
0u
1=
0t
1s
0r
0x
0v
#580000
0"
0;
0<
1+
#590000
1"
1;
1<
0+
1C!
1D!
0E!
1z
1u
0=
1r
1v
#600000
0"
0;
0<
1+
#610000
1"
1;
1<
0+
1B!
0C!
1E!
0w
0v
0u
1=
0s
0r
1x
1w
1v
0x
#620000
0"
0;
0<
1+
#630000
1"
1;
1<
0+
1C!
0D!
0E!
1u
0=
1t
1r
0w
0v
1x
#640000
0"
0;
0<
1+
#650000
1"
1;
1<
0+
0B!
0C!
1E!
0z
1w
1v
0u
1=
0t
1s
0r
0x
0v
#660000
0"
0;
0<
1+
#670000
1"
1;
1<
0+
1C!
1D!
0E!
1z
1u
0=
1r
1v
#680000
0"
0;
0<
1+
#690000
1"
1;
1<
0+
1B!
0C!
1E!
0w
0v
0u
1=
0s
0r
1x
1w
1v
0x
#700000
0"
0;
0<
1+
#710000
1"
1;
1<
0+
1C!
0D!
0E!
1u
0=
1t
1r
0w
0v
1x
#720000
0"
0;
0<
1+
#730000
1"
1;
1<
0+
0B!
0C!
1E!
0z
1w
1v
0u
1=
0t
1s
0r
0x
0v
#740000
0"
0;
0<
1+
#750000
1"
1;
1<
0+
1C!
1D!
0E!
1z
1u
0=
1r
1v
#760000
0"
0;
0<
1+
#770000
1"
1;
1<
0+
1B!
0C!
1E!
0w
0v
0u
1=
0s
0r
1x
1w
1v
0x
#780000
0"
0;
0<
1+
#790000
1"
1;
1<
0+
1C!
0D!
0E!
1u
0=
1t
1r
0w
0v
1x
#800000
0"
0;
0<
1+
#810000
1"
1;
1<
0+
0B!
0C!
1E!
0z
1w
1v
0u
1=
0t
1s
0r
0x
0v
#820000
0"
0;
0<
1+
#830000
1"
1;
1<
0+
1C!
1D!
0E!
1z
1u
0=
1r
1v
#840000
0"
0;
0<
1+
#850000
1"
1;
1<
0+
1B!
0C!
1E!
0w
0v
0u
1=
0s
0r
1x
1w
1v
0x
#860000
0"
0;
0<
1+
#870000
1"
1;
1<
0+
1C!
0D!
0E!
1u
0=
1t
1r
0w
0v
1x
#880000
0"
0;
0<
1+
#890000
1"
1;
1<
0+
0B!
0C!
1E!
0z
1w
1v
0u
1=
0t
1s
0r
0x
0v
#900000
0"
0;
0<
1+
#910000
1"
1;
1<
0+
1C!
1D!
0E!
1z
1u
0=
1r
1v
#920000
0"
0;
0<
1+
#930000
1"
1;
1<
0+
1B!
0C!
1E!
0w
0v
0u
1=
0s
0r
1x
1w
1v
0x
#940000
0"
0;
0<
1+
#950000
1"
1;
1<
0+
1C!
0D!
0E!
1u
0=
1t
1r
0w
0v
1x
#960000
0"
0;
0<
1+
#970000
1"
1;
1<
0+
0B!
0C!
1E!
0z
1w
1v
0u
1=
0t
1s
0r
0x
0v
#980000
0"
0;
0<
1+
#990000
1"
1;
1<
0+
1C!
1D!
0E!
1z
1u
0=
1r
1v
